<?xml version="1.0" encoding="UTF-8" standalone="no"?>
<svg
   xmlns:dc="http://purl.org/dc/elements/1.1/"
   xmlns:cc="http://creativecommons.org/ns#"
   xmlns:rdf="http://www.w3.org/1999/02/22-rdf-syntax-ns#"
   xmlns:svg="http://www.w3.org/2000/svg"
   xmlns="http://www.w3.org/2000/svg"
   xmlns:xlink="http://www.w3.org/1999/xlink"
   width="192"
   height="192"
   viewBox="0 0 192 192"
   version="1.1"
   id="svg8">
  <defs
     id="defs2">
    <linearGradient
       id="linearGradient873">
      <stop
         style="stop-color:#ad1457;stop-opacity:1"
         offset="0"
         id="stop869" />
      <stop
         style="stop-color:#503484;stop-opacity:1"
         offset="1"
         id="stop871" />
    </linearGradient>
    <radialGradient
       xlink:href="#linearGradient873"
       id="radialGradient845"
       cx="386.47607"
       cy="132.58115"
       fx="386.47607"
       fy="132.58115"
       r="182.20828"
       gradientTransform="matrix(-1.5713652,0.76433578,-0.81514551,-1.6758225,1101.8441,80.370094)"
       gradientUnits="userSpaceOnUse" />
    <radialGradient
       xlink:href="#linearGradient873"
       id="radialGradient844"
       cx="358.5011"
       cy="184.76114"
       fx="358.5011"
       fy="184.76114"
       r="250"
       gradientTransform="matrix(-0.5571564,0.36783079,-0.4032351,-0.61078358,415.06339,33.960094)"
       gradientUnits="userSpaceOnUse" />
    <radialGradient
       gradientUnits="userSpaceOnUse"
       gradientTransform="matrix(-0.5571564,0.36783079,-0.4032351,-0.61078358,415.06339,33.960095)"
       r="250"
       fy="184.76114"
       fx="358.5011"
       cy="184.76114"
       cx="358.5011"
       id="radialGradient844-3"
       xlink:href="#linearGradient873" />
  </defs>
  <metadata
     id="metadata5">
    <rdf:RDF>
      <cc:Work
         rdf:about="">
        <dc:format>image/svg+xml</dc:format>
        <dc:type
           rdf:resource="http://purl.org/dc/dcmitype/StillImage" />
        <dc:title></dc:title>
      </cc:Work>
    </rdf:RDF>
  </metadata>
  <rect
     style="fill:url(#radialGradient844-3);fill-opacity:1;stroke-width:0.2304;stroke-linecap:round;stroke-linejoin:round"
     id="rect863"
     width="192"
     height="192.00003"
     x="0"
     y="0" />
  <g
     id="g861"
     transform="matrix(0.3196992,0,0,0.3196992,13.729691,20.122883)"
     style="stroke-width:1.08902">
    <path
       id="path1167"
       style="fill:#ed861d;fill-opacity:1;stroke:none;stroke-width:1.08902px;stroke-linecap:butt;stroke-linejoin:miter;stroke-opacity:1"
       d="m 322.38368,316.56919 -52.83582,14.2866 c -0.10944,39.07237 21.16432,33.6007 23.83485,88.03573 9.15587,-10.54257 14.84752,-18.99141 19.66652,-28.92946 11.47105,2.37009 19.52369,7.00157 27.57577,11.61461 -0.16417,-32.09469 -17.99032,-48.35738 -18.24132,-85.00748 z" />
    <path
       d="m 238.3957,92.186668 c -0.76067,-0.002 -1.67273,-0.002 -2.70775,0.28457 L 117.80996,110.79063 c -9.08965,2.59118 -8.72263,15.59688 0.49799,17.67129 l 159.86095,35.5206 c 6.50923,7.46672 6.88555,31.37817 0.46333,36.11964 l -156.3338,-34.73677 c -0.71324,-0.16417 -1.44289,-0.22984 -2.17328,-0.21342 -4.20426,0.073 -7.80965,3.02204 -8.72883,7.12542 -0.51623,2.30297 -0.12769,4.71666 1.10542,6.73361 l -13.574275,4.91658 c -0.12769,0.0547 -0.26268,0.10945 -0.39219,0.18241 -0.33017,0.12769 -0.65122,0.29004 -0.96132,0.46333 -0.32105,0.18242 -0.62932,0.38489 -0.92666,0.60561 -0.22254,0.16418 -0.43596,0.34659 -0.64209,0.53448 -0.12769,0.12769 -0.2645,0.2572 -0.39219,0.39218 -0.16417,0.14593 -0.31375,0.30281 -0.46333,0.46333 -0.0365,0.0365 -0.073,0.073 -0.10945,0.10945 -0.21889,0.27362 -0.41955,0.55819 -0.60561,0.85552 -0.19518,0.29733 -0.37395,0.60744 -0.53447,0.92666 -0.16417,0.31193 -0.30281,0.63297 -0.42685,0.96132 -1.8e-4,0.0365 -1.8e-4,0.073 0,0.10944 -0.0912,0.25721 -0.18241,0.51806 -0.2499,0.78438 -0.0365,0.14593 -0.073,0.28457 -0.10945,0.42685 -1.8e-4,0.0365 -1.8e-4,0.073 0,0.10945 -0.0547,0.28274 -0.10945,0.5673 -0.14593,0.85551 -3.7e-4,0.0547 -3.7e-4,0.0912 0,0.14594 -0.0182,0.23531 -0.0365,0.47245 -0.0365,0.70958 0.003,0.23714 0.0146,0.4761 0.0365,0.71324 -3.7e-4,0.0547 -3.7e-4,0.0912 0,0.14593 0.0182,0.24991 0.0547,0.49981 0.10945,0.74789 0.0547,0.22802 0.10944,0.45421 0.18241,0.67676 0.0182,0.10944 0.0365,0.21342 0.073,0.32104 0.073,0.20431 0.12769,0.40679 0.21343,0.60562 0.073,0.16417 0.14593,0.3101 0.21342,0.46333 0.0912,0.22984 0.2043,0.45603 0.32105,0.67675 0.0365,0.073 0.073,0.14593 0.10945,0.21342 0.12769,0.20613 0.25355,0.40861 0.39218,0.60561 0.073,0.10945 0.16418,0.21525 0.24991,0.32105 0.14593,0.19701 0.30098,0.38672 0.46333,0.56913 0.0912,0.0912 0.18789,0.19153 0.28457,0.28457 0.0912,0.0912 0.18788,0.19153 0.28456,0.28456 0.19518,0.18241 0.39766,0.34111 0.60561,0.49799 0.073,0.0547 0.14593,0.0912 0.21343,0.14593 0.19518,0.16417 0.39766,0.3174 0.60561,0.46333 0.18606,0.10945 0.37759,0.197 0.56913,0.28456 0.0912,0.0547 0.16417,0.0912 0.2499,0.14593 0.26815,0.12769 0.53995,0.25173 0.81904,0.35571 0.073,0.0182 0.14593,0.0547 0.21342,0.073 0.18789,0.073 0.3776,0.12769 0.56913,0.18242 0.18789,0.0547 0.379415,0.10945 0.569125,0.14593 0.0547,0.0128 0.12769,0.0182 0.18241,0.0365 l 177.38977,35.48521 c 4.26609,7.12123 6.57745,13.48417 6.51999,19.34566 -0.0365,0.53629 -0.015,1.08171 -0.073,1.60341 -0.16418,1.72563 -0.75337,3.49996 -1.35351,5.27302 -0.26632,0.90112 -0.47792,1.82413 -0.81904,2.74331 -1.01786,2.43577 -2.22325,4.87627 -3.42024,7.33922 l -173.54249,-34.7375 c 1.0124,-3.88887 1.92464,-7.83374 2.49396,-12.00644 l -16.139195,2.56509 c -2.42938,0.38489 -4.60046,1.73293 -6.02109,3.74093 -14.54108,20.47005 -12.9871,44.15094 -0.32105,64.77093 0.76066,1.25318 1.81136,2.30351 3.06399,3.064 l 136.809925,82.08595 c 1.55599,0.93214 3.35477,1.37722 5.16595,1.28237 0.0118,0 0.0182,0 0.0365,0 0.63845,-0.0365 1.27142,-0.14593 1.88834,-0.32105 l 0.21343,-0.073 38.9766,-10.617 c -3.0018,-5.57948 -5.90052,-10.59183 -8.08748,-16.70942 l -28.68028,7.83793 c -6.23744,-12.9154 -6.02201,-24.03787 1.78217,-36.30443 l 196.37917,-53.54832 0.10944,-0.0365 c 0.92302,-0.25355 1.80042,-0.64939 2.60085,-1.17474 0.10945,-0.073 0.21525,-0.14593 0.32105,-0.21342 0.0122,-0.012 0.0182,-0.0182 0.0365,-0.0365 l 0.10945,-0.073 c 0.38307,-0.30281 0.7406,-0.63662 1.06894,-0.9978 0.12769,-0.10945 0.2645,-0.23349 0.39219,-0.35571 v -0.0365 c 0.0912,-0.10945 0.19336,-0.23531 0.28457,-0.35571 0.34111,-0.44691 0.63844,-0.92301 0.89017,-1.42464 0.0122,-0.012 0.0182,-0.0182 0.0365,-0.0365 0.14594,-0.31375 0.2791,-0.63479 0.39219,-0.96131 0.0365,-0.073 0.073,-0.16418 0.10945,-0.24991 0.073,-0.2572 0.14593,-0.51988 0.21342,-0.78438 0.073,-0.35205 0.14594,-0.70958 0.18242,-1.06894 0.0133,-0.073 0.0182,-0.16417 0.0365,-0.2499 0.0182,-0.2718 0.0365,-0.54542 0.0365,-0.81904 10e-4,-0.0912 10e-4,-0.18971 0,-0.28456 -0.0113,-0.27362 -0.0365,-0.54724 -0.073,-0.81904 -0.0109,-0.0912 -0.0182,-0.16417 -0.0365,-0.24991 -0.0547,-0.27544 -0.10945,-0.54906 -0.18242,-0.81903 -0.0115,-0.0547 -0.0182,-0.10945 -0.0365,-0.18242 -0.28457,-1.04887 -0.75519,-2.0381 -1.38999,-2.92134 -0.012,-0.0182 -0.0182,-0.0547 -0.0365,-0.073 -0.19883,-0.27362 -0.41226,-0.53447 -0.6421,-0.78438 -0.012,-0.0122 -0.0182,-0.0182 -0.0365,-0.0365 -0.23531,-0.25173 -0.48522,-0.48887 -0.74789,-0.71323 -0.012,-0.0122 -0.0183,-0.0182 -0.0365,-0.0365 -0.5144,-0.44144 -1.07623,-0.82268 -1.67455,-1.14008 -0.0182,-0.0124 -0.0547,-0.0182 -0.073,-0.0365 -0.0182,-0.0124 -0.0547,-0.0182 -0.073,-0.0365 -0.30098,-0.14594 -0.61108,-0.2791 -0.92666,-0.39219 -0.0182,-0.0124 -0.0547,-0.0182 -0.073,-0.0365 -0.073,-0.0182 -0.14593,-0.0547 -0.21342,-0.073 l -63.41943,-21.12728 38.37099,-26.57816 c 1.1109,-0.77343 2.03555,-1.78218 2.70756,-2.9571 7.39047,-12.95864 9.91143,-29.95189 -0.21342,-45.88824 -1.43195,-2.24843 -3.77413,-3.75826 -6.41292,-4.13294 l -17.84932,-2.56509 c 4.65865,-12.53435 3.4332,-25.40451 -2.03081,-36.51822 v -0.0365 c -0.18241,-0.63115 -0.43414,-1.24041 -0.74789,-1.81684 -0.0122,-0.0122 -0.0182,-0.0182 -0.0365,-0.0365 -0.012,-0.0365 -0.0182,-0.073 -0.0365,-0.10945 -0.0547,-0.0912 -0.12768,-0.16417 -0.18241,-0.24991 -0.12769,-0.21889 -0.27544,-0.43414 -0.42685,-0.64209 -0.18241,-0.25903 -0.36665,-0.50893 -0.56912,-0.7479 -0.0365,-0.0365 -0.073,-0.073 -0.10945,-0.10944 -0.21525,-0.22437 -0.44144,-0.43962 -0.67676,-0.6421 -0.0365,-0.0365 -0.073,-0.073 -0.10944,-0.10945 -0.10945,-0.073 -0.2116,-0.14593 -0.32105,-0.21342 -0.18424,-0.14593 -0.37395,-0.29186 -0.56913,-0.42685 -0.25355,-0.16417 -0.51441,-0.32287 -0.78438,-0.46333 -0.0547,-0.0182 -0.0912,-0.0547 -0.14593,-0.073 -0.27727,-0.14593 -0.56365,-0.27545 -0.85552,-0.39219 -0.62203,-0.22437 -1.26777,-0.37942 -1.92391,-0.46333 l -0.18241,-0.0365 c -0.0547,-3.7e-4 -0.0912,-3.7e-4 -0.14593,0 L 239.44476,92.305238 c -0.35389,-0.0547 -0.71142,-0.0912 -1.06895,-0.10945 z M 422.71096,289.56345 c -0.34841,0.0182 -0.695,0.0912 -1.03246,0.18242 l -89.42535,24.19109 c 0.0365,3.95618 0.30645,7.62524 0.71323,11.15147 l 91.59863,-24.76114 c 2.92609,-0.79167 4.65154,-3.81079 3.84764,-6.7336 -0.6877,-2.53664 -3.08005,-4.22688 -5.70041,-4.02604 z m 7.6599,21.51911 c -0.79533,0.004 -1.58517,0.10945 -2.35149,0.32105 l -93.05921,25.36675 c 1.43924,6.28304 3.3668,11.90976 5.30841,17.45749 l 92.52492,-25.22428 c 4.85912,-1.31885 7.72976,-6.32719 6.41292,-11.18704 -1.08171,-3.9861 -4.70554,-6.74856 -8.83555,-6.73361 z m -170.62059,22.4454 -16.31741,4.41769 c -2.94069,0.77525 -4.68492,3.80003 -3.8834,6.73378 0.79167,2.92609 3.8108,4.65154 6.7336,3.84764 l 14.21547,-3.84764 c -0.45421,-3.31737 -0.7479,-6.91766 -0.7479,-11.15147 z"
       style="fill:#ffffff;fill-opacity:1;stroke:none;stroke-width:1.08902px;stroke-linecap:butt;stroke-linejoin:miter;stroke-opacity:1"
       id="path1555" />
  </g>
</svg>
