<?xml version="1.0" encoding="UTF-8" standalone="no"?>
<svg
   xmlns:dc="http://purl.org/dc/elements/1.1/"
   xmlns:cc="http://creativecommons.org/ns#"
   xmlns:rdf="http://www.w3.org/1999/02/22-rdf-syntax-ns#"
   xmlns:svg="http://www.w3.org/2000/svg"
   xmlns="http://www.w3.org/2000/svg"
   viewBox="0 0 250 71"
   height="71"
   width="250"
   id="svg2"
   version="1.1">
  <metadata
     id="metadata8">
    <rdf:RDF>
      <cc:Work
         rdf:about="">
        <dc:format>image/svg+xml</dc:format>
        <dc:type
           rdf:resource="http://purl.org/dc/dcmitype/StillImage" />
        <dc:title></dc:title>
      </cc:Work>
    </rdf:RDF>
  </metadata>
  <defs
     id="defs6" />
  <g
     transform="matrix(0.39774188,0,0,0.39774188,-0.06722444,-79.018312)"
     id="g958"
     style="stroke-width:2.5142;fill:#ffffff">
    <path
       style="fill:#ffffff;fill-opacity:1;stroke-width:0.804541"
       d="M 75.68,376.73231 C 61.838794,374.83188 46.143837,368.0973 34.56,359.08804 27.858814,353.87623 18.605346,344.31388 19.576536,343.60443 c 0.05691,-0.0416 12.631464,-0.14957 27.943464,-0.24 l 27.84,-0.16442 v -5.12 -5.12 l -27.345811,-0.0818 c -15.040195,-0.045 -27.467875,-0.20388 -27.617066,-0.35307 -0.149192,-0.14919 12.358928,-20.99238 27.795824,-46.31819 15.436893,-25.32582 28.13337,-46.29894 28.214387,-46.60694 0.13953,-0.53042 -1.451683,-0.56 -30.130012,-0.56 C 20.996841,239.04 16,238.96835 16,238.6058 c 0,-1.12075 6.241836,-8.63005 11.088174,-13.33972 20.250031,-19.67897 48.380402,-28.52359 76.255526,-23.9759 17.64261,2.8783 34.11405,11.14207 47.16534,23.66297 4.41561,4.23618 10.77096,11.75999 10.77096,12.75126 0,0.24069 -0.53813,0.15414 -1.5697,-0.25247 -7.64508,-3.01341 -17.62629,-2.71876 -25.11539,0.74142 -7.69696,3.55621 -12.96735,9.58468 -14.96779,17.12071 -0.91768,3.45705 -0.91156,9.77716 0.0128,13.26209 1.36543,5.14761 4.52211,9.50756 9.64449,13.32078 2.57902,1.91989 9.69857,5.67798 15.67555,8.27441 10.14837,4.40851 14.68327,7.04049 17.64576,10.24129 3.19472,3.45173 4.56645,7.04891 4.54067,11.90737 -0.0344,6.48109 -3.11627,12.26849 -8.62731,16.20109 -3.35006,2.39055 -6.37168,3.45464 -11.71912,4.127 l -1.52,0.19112 v 5.30861 5.30861 l 3.28,-0.19307 c 5.30218,-0.3121 9.79954,-1.72251 14.64796,-4.59373 5.90204,-3.49517 10.28276,-8.46029 13.13556,-14.88788 0.45293,-1.0205 0.92093,-1.95288 1.04,-2.07194 0.11906,-0.11906 0.21648,12.26352 0.21648,27.51685 l 1e-5,27.73334 -50.48,-0.048 C 99.356,376.8857 76.208,376.8048 75.68,376.73231 Z m 60.56793,-38.5723 -0.0879,-5.2 -21.44,-0.16 -21.44,-0.16 -0.16,-46.72 -0.16,-46.72001 h -5.6 -5.6 l -0.08096,52.08001 -0.08096,52.08 H 108.967 136.33588 Z M 8.4522269,326.48001 C 5.7588029,320.43403 4.30432,316.31449 2.876929,310.68906 -1.2354649,294.48187 -0.64862163,276.98947 4.533296,261.31669 5.8630118,257.29494 8.04108,251.89142 8.836888,250.64 l 0.4578659,-0.72 H 33.287376 c 13.195942,0 23.992624,0.0853 23.992624,0.18953 0,0.42809 -47.4630182,78.21048 -47.7242461,78.21048 -0.1561033,0 -0.6526905,-0.828 -1.103527,-1.84 z m 168.2125131,-26.64 c -4.09462,-7.81148 -9.65726,-12.13598 -23.64815,-18.3845 -13.70998,-6.12307 -16.10195,-7.47233 -19.03993,-10.74008 -2.22898,-2.47916 -3.23221,-4.78051 -3.36847,-7.72708 -0.22244,-4.80998 1.09943,-8.1847 4.56636,-11.65787 3.79405,-3.80088 8.43817,-5.49088 14.10545,-5.13298 6.42394,0.40567 10.32167,2.63958 14.53718,8.33169 1.12047,1.51295 2.12398,2.75036 2.23002,2.7498 0.10604,-6.4e-4 1.0568,-0.57611 2.1128,-1.27899 1.056,-0.70288 2.10512,-1.27842 2.33137,-1.27898 0.52109,-0.001 1.26511,1.7375 2.88634,6.74541 2.96792,9.16777 3.90779,15.71288 4.13186,28.77357 0.0891,5.19201 0.10526,9.80001 0.036,10.24001 -0.11593,0.73614 -0.18624,0.68505 -0.8808,-0.64 z"
       id="path817" />
    <g
       aria-label="ZENTRUM FÜR"
       style="font-style:normal;font-weight:normal;font-size:43.232px;line-height:1.25;font-family:sans-serif;letter-spacing:0px;word-spacing:0px;fill:#ffffff;fill-opacity:1;stroke:none;stroke-width:2.71734"
       id="text821">
      <path
         d="m 208.89431,271.66861 18.36515,-28.34988 H 211.5752 v -2.55423 h 20.47608 l -18.28071,28.30766 h 16.42309 v 2.59645 z"
         style="font-style:normal;font-variant:normal;font-weight:normal;font-stretch:normal;font-family:'Futura Lt BT';-inkscape-font-specification:'Futura Lt BT';fill:#ffffff;fill-opacity:1;stroke-width:2.71734"
         id="path893" />
      <path
         d="M 236.44203,271.66861 V 240.7645 h 15.30429 v 2.63867 h -12.49674 v 9.66809 h 12.49674 v 2.63867 h -12.49674 v 13.32001 h 12.49674 v 2.63867 z"
         style="font-style:normal;font-variant:normal;font-weight:normal;font-stretch:normal;font-family:'Futura Lt BT';-inkscape-font-specification:'Futura Lt BT';fill:#ffffff;fill-opacity:1;stroke-width:2.71734"
         id="path895" />
      <path
         d="m 258.64909,271.66861 v -32.21289 l 21.89041,25.85897 V 240.7645 h 2.61756 v 31.81181 l -21.8693,-25.90119 v 24.99349 z"
         style="font-style:normal;font-variant:normal;font-weight:normal;font-stretch:normal;font-family:'Futura Lt BT';-inkscape-font-specification:'Futura Lt BT';fill:#ffffff;fill-opacity:1;stroke-width:2.71734"
         id="path897" />
      <path
         d="m 296.39263,271.66861 v -28.26544 h -8.50708 v -2.63867 h 19.8428 v 2.63867 h -8.52818 v 28.26544 z"
         style="font-style:normal;font-variant:normal;font-weight:normal;font-stretch:normal;font-family:'Futura Lt BT';-inkscape-font-specification:'Futura Lt BT';fill:#ffffff;fill-opacity:1;stroke-width:2.71734"
         id="path899" />
      <path
         d="m 315.24329,243.21319 v 11.42016 h 2.82866 q 3.92634,0 5.46732,-1.24545 1.56209,-1.26656 1.56209,-4.2852 0,-3.18752 -1.60431,-4.53851 -1.60431,-1.351 -5.4251,-1.351 z m 15.95868,28.45542 h -3.41972 l -10.85021,-14.73434 h -1.68875 v 14.73434 h -2.80754 V 240.7645 h 5.67842 q 5.02402,0 7.51493,2.08983 2.51201,2.08982 2.51201,6.33281 0,3.6097 -2.15315,5.67842 -2.13205,2.06871 -5.88951,2.06871 z"
         style="font-style:normal;font-variant:normal;font-weight:normal;font-stretch:normal;font-family:'Futura Lt BT';-inkscape-font-specification:'Futura Lt BT';fill:#ffffff;fill-opacity:1;stroke-width:2.71734"
         id="path901" />
      <path
         d="m 335.1072,240.7645 h 2.76533 v 20.18055 q 0,4.58073 2.08982,6.81833 2.08983,2.21648 6.39614,2.21648 4.24298,0 6.33281,-2.21648 2.08983,-2.2376 2.08983,-6.81833 V 240.7645 h 2.80754 v 19.27285 q 0,6.26948 -2.78643,9.37256 -2.78644,3.08196 -8.44375,3.08196 -5.67842,0 -8.46485,-3.08196 -2.78644,-3.10308 -2.78644,-9.37256 z"
         style="font-style:normal;font-variant:normal;font-weight:normal;font-stretch:normal;font-family:'Futura Lt BT';-inkscape-font-specification:'Futura Lt BT';fill:#ffffff;fill-opacity:1;stroke-width:2.71734"
         id="path903" />
      <path
         d="m 379.22578,272.87184 -10.85021,-24.8035 -2.34314,23.60027 h -2.89198 l 4.20076,-32.21289 11.84235,27.5055 12.28565,-27.5055 3.96856,32.21289 h -2.89198 l -2.30092,-23.60027 z"
         style="font-style:normal;font-variant:normal;font-weight:normal;font-stretch:normal;font-family:'Futura Lt BT';-inkscape-font-specification:'Futura Lt BT';fill:#ffffff;fill-opacity:1;stroke-width:2.71734"
         id="path905" />
      <path
         d="M 413.7607,271.66861 V 240.7645 h 15.30429 v 2.63867 h -12.49675 v 9.66809 h 12.03234 v 2.63867 h -12.03234 v 15.95868 z"
         style="font-style:normal;font-variant:normal;font-weight:normal;font-stretch:normal;font-family:'Futura Lt BT';-inkscape-font-specification:'Futura Lt BT';fill:#ffffff;fill-opacity:1;stroke-width:2.71734"
         id="path907" />
      <path
         d="m 435.33447,240.7645 h 2.76532 v 20.18055 q 0,4.58073 2.08983,6.81833 2.08983,2.21648 6.39614,2.21648 4.24298,0 6.33281,-2.21648 2.08982,-2.2376 2.08982,-6.81833 V 240.7645 h 2.80755 v 19.27285 q 0,6.26948 -2.78644,9.37256 -2.78643,3.08196 -8.44374,3.08196 -5.67842,0 -8.46486,-3.08196 -2.78643,-3.10308 -2.78643,-9.37256 z m 12.89782,-6.37503 q 0,-0.84437 0.61217,-1.45655 0.61217,-0.61217 1.45654,-0.61217 0.84438,0 1.43544,0.61217 0.59106,0.61218 0.59106,1.45655 0,0.88659 -0.56995,1.45655 -0.56995,0.56995 -1.45655,0.56995 -0.88659,0 -1.47765,-0.56995 -0.59106,-0.56996 -0.59106,-1.45655 z m -7.38828,0 q 0,-0.84437 0.59106,-1.45655 0.59106,-0.61217 1.43544,-0.61217 0.84437,0 1.45654,0.61217 0.61218,0.61218 0.61218,1.45655 0,0.86549 -0.59107,1.45655 -0.59106,0.56995 -1.47765,0.56995 -0.88659,0 -1.45655,-0.54884 -0.56995,-0.56996 -0.56995,-1.47766 z"
         style="font-style:normal;font-variant:normal;font-weight:normal;font-stretch:normal;font-family:'Futura Lt BT';-inkscape-font-specification:'Futura Lt BT';fill:#ffffff;fill-opacity:1;stroke-width:2.71734"
         id="path909" />
      <path
         d="m 468.15954,243.21319 v 11.42016 h 2.82865 q 3.92634,0 5.46733,-1.24545 1.56209,-1.26656 1.56209,-4.2852 0,-3.18752 -1.60431,-4.53851 -1.60431,-1.351 -5.42511,-1.351 z m 15.95868,28.45542 h -3.41972 l -10.85021,-14.73434 h -1.68875 v 14.73434 h -2.80755 V 240.7645 h 5.67842 q 5.02403,0 7.51493,2.08983 2.51202,2.08982 2.51202,6.33281 0,3.6097 -2.15316,5.67842 -2.13204,2.06871 -5.88951,2.06871 z"
         style="font-style:normal;font-variant:normal;font-weight:normal;font-stretch:normal;font-family:'Futura Lt BT';-inkscape-font-specification:'Futura Lt BT';fill:#ffffff;fill-opacity:1;stroke-width:2.71734"
         id="path911" />
    </g>
    <g
       aria-label="LEHRERBILDUNG UND"
       style="font-style:normal;font-weight:normal;font-size:43.232px;line-height:1.25;font-family:sans-serif;letter-spacing:0px;word-spacing:0px;fill:#ffffff;fill-opacity:1;stroke:none;stroke-width:2.71734"
       id="text825">
      <path
         d="m 212.20848,323.51584 v -30.90411 h 2.80755 v 28.26544 h 10.5969 v 2.63867 z"
         style="font-style:normal;font-variant:normal;font-weight:normal;font-stretch:normal;font-family:'Futura Lt BT';-inkscape-font-specification:'Futura Lt BT';fill:#ffffff;fill-opacity:1;stroke-width:2.71734"
         id="path860" />
      <path
         d="m 230.10922,323.51584 v -30.90411 h 15.30429 v 2.63867 h -12.49674 v 9.66809 h 12.49674 v 2.63867 h -12.49674 v 13.32001 h 12.49674 v 2.63867 z"
         style="font-style:normal;font-variant:normal;font-weight:normal;font-stretch:normal;font-family:'Futura Lt BT';-inkscape-font-specification:'Futura Lt BT';fill:#ffffff;fill-opacity:1;stroke-width:2.71734"
         id="path862" />
      <path
         d="m 252.31628,323.51584 v -30.90411 h 2.80754 v 12.53896 h 16.82417 v -12.53896 h 2.80754 v 30.90411 h -2.80754 v -15.95868 h -16.82417 v 15.95868 z"
         style="font-style:normal;font-variant:normal;font-weight:normal;font-stretch:normal;font-family:'Futura Lt BT';-inkscape-font-specification:'Futura Lt BT';fill:#ffffff;fill-opacity:1;stroke-width:2.71734"
         id="path864" />
      <path
         d="m 285.268,295.06041 v 11.42017 h 2.82865 q 3.92634,0 5.46733,-1.24545 1.56209,-1.26656 1.56209,-4.2852 0,-3.18752 -1.60431,-4.53852 -1.60431,-1.351 -5.42511,-1.351 z m 15.95868,28.45543 h -3.41972 L 286.95674,308.7815 H 285.268 v 14.73434 h -2.80755 v -30.90411 h 5.67842 q 5.02403,0 7.51493,2.08983 2.51202,2.08982 2.51202,6.3328 0,3.60971 -2.15316,5.67842 -2.13204,2.06872 -5.88951,2.06872 z"
         style="font-style:normal;font-variant:normal;font-weight:normal;font-stretch:normal;font-family:'Futura Lt BT';-inkscape-font-specification:'Futura Lt BT';fill:#ffffff;fill-opacity:1;stroke-width:2.71734"
         id="path866" />
      <path
         d="m 305.25856,323.51584 v -30.90411 h 15.30429 v 2.63867 h -12.49674 v 9.66809 h 12.49674 v 2.63867 h -12.49674 v 13.32001 h 12.49674 v 2.63867 z"
         style="font-style:normal;font-variant:normal;font-weight:normal;font-stretch:normal;font-family:'Futura Lt BT';-inkscape-font-specification:'Futura Lt BT';fill:#ffffff;fill-opacity:1;stroke-width:2.71734"
         id="path868" />
      <path
         d="m 330.27316,295.06041 v 11.42017 h 2.82866 q 3.92634,0 5.46732,-1.24545 1.56209,-1.26656 1.56209,-4.2852 0,-3.18752 -1.60431,-4.53852 -1.60431,-1.351 -5.4251,-1.351 z m 15.95868,28.45543 h -3.41972 L 331.96191,308.7815 h -1.68875 v 14.73434 h -2.80754 v -30.90411 h 5.67841 q 5.02403,0 7.51494,2.08983 2.51201,2.08982 2.51201,6.3328 0,3.60971 -2.15315,5.67842 -2.13205,2.06872 -5.88952,2.06872 z"
         style="font-style:normal;font-variant:normal;font-weight:normal;font-stretch:normal;font-family:'Futura Lt BT';-inkscape-font-specification:'Futura Lt BT';fill:#ffffff;fill-opacity:1;stroke-width:2.71734"
         id="path870" />
      <path
         d="m 353.07128,306.35392 h 3.50415 q 3.86302,0 5.44622,-1.26656 1.60431,-1.26656 1.60431,-4.22187 0,-3.18751 -1.56209,-4.49629 -1.54099,-1.30879 -5.48844,-1.30879 h -3.50415 z m 0,14.73434 h 3.58859 q 3.06086,0 4.22187,-0.25331 1.16102,-0.25331 1.96318,-0.86548 0.99214,-0.75994 1.5832,-2.08983 0.59106,-1.351 0.59106,-2.87088 0,-1.85762 -0.65439,-3.25084 -0.65439,-1.41433 -1.81541,-2.11093 -0.80215,-0.46441 -1.89984,-0.65439 -1.07658,-0.2111 -3.3775,-0.2111 h -0.61217 -3.58859 z m -2.80755,2.42758 v -30.90411 h 5.36178 q 3.52527,0 5.08736,0.33775 1.56209,0.33775 2.65978,1.16101 1.54098,1.16102 2.34314,2.84977 0.80215,1.66764 0.80215,3.69414 0,2.46979 -1.28767,4.20076 -1.28767,1.73097 -3.54637,2.27981 2.97642,0.4433 4.66517,2.38536 1.68875,1.94206 1.68875,4.91848 0,2.17427 -0.65439,3.86302 -0.65439,1.68874 -1.98428,2.91309 -1.351,1.26656 -3.25084,1.79429 -1.89985,0.50663 -6.48058,0.50663 z"
         style="font-style:normal;font-variant:normal;font-weight:normal;font-stretch:normal;font-family:'Futura Lt BT';-inkscape-font-specification:'Futura Lt BT';fill:#ffffff;fill-opacity:1;stroke-width:2.71734"
         id="path872" />
      <path
         d="m 374.15953,323.51584 v -30.90411 h 2.80755 v 30.90411 z"
         style="font-style:normal;font-variant:normal;font-weight:normal;font-stretch:normal;font-family:'Futura Lt BT';-inkscape-font-specification:'Futura Lt BT';fill:#ffffff;fill-opacity:1;stroke-width:2.71734"
         id="path874" />
      <path
         d="m 384.71422,323.51584 v -30.90411 h 2.80754 v 28.26544 h 10.59691 v 2.63867 z"
         style="font-style:normal;font-variant:normal;font-weight:normal;font-stretch:normal;font-family:'Futura Lt BT';-inkscape-font-specification:'Futura Lt BT';fill:#ffffff;fill-opacity:1;stroke-width:2.71734"
         id="path876" />
      <path
         d="m 405.42251,321.08826 h 3.94745 q 4.79182,0 6.79721,-0.52773 2.00539,-0.54885 3.39861,-1.83652 1.94206,-1.8154 2.9342,-4.5174 0.99214,-2.702 0.99214,-6.16394 0,-3.54637 -1.01325,-6.24837 -0.99214,-2.702 -2.95531,-4.43296 -1.47765,-1.32989 -3.6097,-1.87874 -2.13205,-0.54884 -7.45161,-0.54884 h -0.52773 -2.51201 z m -2.80755,2.42758 v -30.90411 h 4.81294 q 6.43835,0 9.14035,0.63328 2.702,0.63328 4.64406,2.17426 2.57534,2.04761 3.92634,5.27735 1.351,3.22973 1.351,7.38827 0,4.15855 -1.351,7.40939 -1.351,3.22973 -3.88412,5.17179 -2.00539,1.54099 -4.58073,2.19538 -2.57535,0.65439 -8.29598,0.65439 h -0.94992 z"
         style="font-style:normal;font-variant:normal;font-weight:normal;font-stretch:normal;font-family:'Futura Lt BT';-inkscape-font-specification:'Futura Lt BT';fill:#ffffff;fill-opacity:1;stroke-width:2.71734"
         id="path878" />
      <path
         d="m 432.63247,292.61173 h 2.76533 v 20.18055 q 0,4.58073 2.08982,6.81833 2.08983,2.21648 6.39614,2.21648 4.24298,0 6.33281,-2.21648 2.08983,-2.2376 2.08983,-6.81833 v -20.18055 h 2.80754 v 19.27285 q 0,6.26948 -2.78643,9.37256 -2.78644,3.08196 -8.44375,3.08196 -5.67842,0 -8.46485,-3.08196 -2.78644,-3.10308 -2.78644,-9.37256 z"
         style="font-style:normal;font-variant:normal;font-weight:normal;font-stretch:normal;font-family:'Futura Lt BT';-inkscape-font-specification:'Futura Lt BT';fill:#ffffff;fill-opacity:1;stroke-width:2.71734"
         id="path880" />
      <path
         d="m 462.64999,323.51584 v -32.21289 l 21.89042,25.85897 v -24.55019 h 2.61756 v 31.81181 l -21.8693,-25.90119 v 24.99349 z"
         style="font-style:normal;font-variant:normal;font-weight:normal;font-stretch:normal;font-family:'Futura Lt BT';-inkscape-font-specification:'Futura Lt BT';fill:#ffffff;fill-opacity:1;stroke-width:2.71734"
         id="path882" />
      <path
         d="m 520.23634,300.37997 q -1.87873,-2.91309 -4.62295,-4.41185 -2.74421,-1.49877 -6.18504,-1.49877 -5.74175,0 -9.35145,3.88413 -3.6097,3.88412 -3.6097,10.06916 0,2.76533 0.94992,5.21402 0.97103,2.44868 2.80755,4.34853 1.85762,1.87873 4.15854,2.82865 2.30092,0.92881 5.04514,0.92881 5.1929,0 8.44375,-3.06086 3.27195,-3.06085 3.35638,-8.00045 h -10.66022 v -2.42757 h 13.74219 v 0.33775 q 0,7.38828 -4.03189,11.56793 -4.03189,4.17965 -11.10352,4.17965 -7.02942,0 -11.37795,-4.47518 -4.34853,-4.47519 -4.34853,-11.73681 0,-3.33528 1.09769,-6.29059 1.09768,-2.97642 3.1664,-5.17179 2.23759,-2.38536 5.04514,-3.56749 2.82865,-1.18212 6.29059,-1.18212 4.70739,0 8.06378,1.70986 3.35639,1.68875 5.17179,4.98181 z"
         style="font-style:normal;font-variant:normal;font-weight:normal;font-stretch:normal;font-family:'Futura Lt BT';-inkscape-font-specification:'Futura Lt BT';fill:#ffffff;fill-opacity:1;stroke-width:2.71734"
         id="path884" />
      <path
         d="m 542.57005,292.61173 h 2.76532 v 20.18055 q 0,4.58073 2.08983,6.81833 2.08983,2.21648 6.39614,2.21648 4.24298,0 6.33281,-2.21648 2.08982,-2.2376 2.08982,-6.81833 v -20.18055 h 2.80755 v 19.27285 q 0,6.26948 -2.78644,9.37256 -2.78643,3.08196 -8.44374,3.08196 -5.67842,0 -8.46486,-3.08196 -2.78643,-3.10308 -2.78643,-9.37256 z"
         style="font-style:normal;font-variant:normal;font-weight:normal;font-stretch:normal;font-family:'Futura Lt BT';-inkscape-font-specification:'Futura Lt BT';fill:#ffffff;fill-opacity:1;stroke-width:2.71734"
         id="path886" />
      <path
         d="m 572.58757,323.51584 v -32.21289 l 21.89041,25.85897 v -24.55019 h 2.61756 v 31.81181 l -21.8693,-25.90119 v 24.99349 z"
         style="font-style:normal;font-variant:normal;font-weight:normal;font-stretch:normal;font-family:'Futura Lt BT';-inkscape-font-specification:'Futura Lt BT';fill:#ffffff;fill-opacity:1;stroke-width:2.71734"
         id="path888" />
      <path
         d="m 607.65021,321.08826 h 3.94745 q 4.79183,0 6.79722,-0.52773 2.00539,-0.54885 3.39861,-1.83652 1.94206,-1.8154 2.9342,-4.5174 0.99214,-2.702 0.99214,-6.16394 0,-3.54637 -1.01325,-6.24837 -0.99214,-2.702 -2.95531,-4.43296 -1.47766,-1.32989 -3.6097,-1.87874 -2.13205,-0.54884 -7.45161,-0.54884 h -0.52773 -2.51202 z m -2.80754,2.42758 v -30.90411 h 4.81293 q 6.43836,0 9.14036,0.63328 2.702,0.63328 4.64406,2.17426 2.57534,2.04761 3.92634,5.27735 1.351,3.22973 1.351,7.38827 0,4.15855 -1.351,7.40939 -1.351,3.22973 -3.88412,5.17179 -2.00539,1.54099 -4.58074,2.19538 -2.57534,0.65439 -8.29598,0.65439 h -0.94992 z"
         style="font-style:normal;font-variant:normal;font-weight:normal;font-stretch:normal;font-family:'Futura Lt BT';-inkscape-font-specification:'Futura Lt BT';fill:#ffffff;fill-opacity:1;stroke-width:2.71734"
         id="path890" />
    </g>
    <g
       aria-label="SCHULFORSCHUNG"
       style="font-style:normal;font-weight:normal;font-size:43.232px;line-height:1.25;font-family:sans-serif;letter-spacing:0px;word-spacing:0px;fill:#ffffff;fill-opacity:1;stroke:none;stroke-width:2.71734"
       id="text829">
      <path
         d="m 209.84423,370.24655 2.40647,-1.28767 q 0.6755,2.27981 2.32203,3.54637 1.66764,1.24545 3.98967,1.24545 2.9342,0 4.58073,-1.73096 1.64653,-1.73097 1.64653,-4.79183 0,-2.23759 -1.11879,-3.71525 -1.09769,-1.47765 -4.74961,-3.41972 -4.66517,-2.46979 -6.20615,-4.34852 -1.54099,-1.87874 -1.54099,-4.51741 0,-3.29306 2.21649,-5.36178 2.23759,-2.06871 5.78396,-2.06871 2.32203,0 4.03189,0.99214 1.73097,0.97103 2.80755,2.9342 l -2.17427,1.30878 q -0.6755,-1.32989 -1.92095,-2.0265 -1.22434,-0.69661 -2.91309,-0.69661 -2.27981,0 -3.63081,1.351 -1.351,1.32989 -1.351,3.6097 0,3.25084 5.36178,6.05839 0.97103,0.50662 1.47765,0.78104 3.94745,2.17427 5.27734,4.11633 1.32989,1.92095 1.32989,5.00292 0,4.15855 -2.42757,6.60723 -2.42758,2.42758 -6.60724,2.42758 -3.03974,0 -5.21401,-1.49877 -2.15315,-1.51987 -3.3775,-4.5174 z"
         style="font-style:normal;font-variant:normal;font-weight:normal;font-stretch:normal;font-family:'Futura Lt BT';-inkscape-font-specification:'Futura Lt BT';fill:#ffffff;fill-opacity:1;stroke-width:2.71734"
         id="path831" />
      <path
         d="m 258.56465,350.19265 q -2.30092,-1.98428 -4.70739,-2.9342 -2.40647,-0.94992 -5.06625,-0.94992 -5.99506,0 -9.75253,3.79969 -3.73635,3.79968 -3.73635,9.90029 0,3.06086 0.9077,5.50954 0.92881,2.44869 2.80754,4.34853 1.85763,1.85762 4.24299,2.82866 2.40646,0.97103 5.15068,0.97103 2.65978,0 5.19291,-0.90771 2.53312,-0.9077 4.79182,-2.68089 v 3.29307 q -2.27981,1.39321 -4.83404,2.13204 -2.53313,0.75994 -5.02403,0.75994 -3.35639,0 -6.41725,-1.20324 -3.06086,-1.20323 -5.25623,-3.37749 -2.2587,-2.2376 -3.41972,-5.19291 -1.16101,-2.95531 -1.16101,-6.48057 0,-3.46194 1.18212,-6.45947 1.20323,-2.99753 3.44083,-5.17179 2.17426,-2.13205 5.23512,-3.33528 3.08197,-1.20324 6.39614,-1.20324 2.95531,0 5.46732,0.82327 2.53313,0.80215 4.60184,2.42758 z"
         style="font-style:normal;font-variant:normal;font-weight:normal;font-stretch:normal;font-family:'Futura Lt BT';-inkscape-font-specification:'Futura Lt BT';fill:#ffffff;fill-opacity:1;stroke-width:2.71734"
         id="path833" />
      <path
         d="m 264.64414,375.43945 v -30.90411 h 2.80755 v 12.53897 h 16.82416 v -12.53897 h 2.80755 v 30.90411 h -2.80755 v -15.95868 h -16.82416 v 15.95868 z"
         style="font-style:normal;font-variant:normal;font-weight:normal;font-stretch:normal;font-family:'Futura Lt BT';-inkscape-font-specification:'Futura Lt BT';fill:#ffffff;fill-opacity:1;stroke-width:2.71734"
         id="path835" />
      <path
         d="m 294.66166,344.53534 h 2.76533 v 20.18056 q 0,4.58073 2.08982,6.81832 2.08983,2.21648 6.39614,2.21648 4.24298,0 6.33281,-2.21648 2.08983,-2.23759 2.08983,-6.81832 v -20.18056 h 2.80754 v 19.27285 q 0,6.26948 -2.78643,9.37256 -2.78644,3.08197 -8.44375,3.08197 -5.67842,0 -8.46485,-3.08197 -2.78644,-3.10308 -2.78644,-9.37256 z"
         style="font-style:normal;font-variant:normal;font-weight:normal;font-stretch:normal;font-family:'Futura Lt BT';-inkscape-font-specification:'Futura Lt BT';fill:#ffffff;fill-opacity:1;stroke-width:2.71734"
         id="path837" />
      <path
         d="m 324.67918,375.43945 v -30.90411 h 2.80754 v 28.26544 h 10.5969 v 2.63867 z"
         style="font-style:normal;font-variant:normal;font-weight:normal;font-stretch:normal;font-family:'Futura Lt BT';-inkscape-font-specification:'Futura Lt BT';fill:#ffffff;fill-opacity:1;stroke-width:2.71734"
         id="path839" />
      <path
         d="m 342.57991,375.43945 v -30.90411 h 15.30429 v 2.63867 h -12.49674 v 9.66809 h 12.03233 v 2.63867 h -12.03233 v 15.95868 z"
         style="font-style:normal;font-variant:normal;font-weight:normal;font-stretch:normal;font-family:'Futura Lt BT';-inkscape-font-specification:'Futura Lt BT';fill:#ffffff;fill-opacity:1;stroke-width:2.71734"
         id="path841" />
      <path
         d="m 379.33133,373.7507 q 2.74422,0 5.1929,-1.01325 2.44869,-1.01325 4.41186,-2.95531 1.92095,-1.96317 2.9342,-4.45407 1.03436,-2.51202 1.03436,-5.27734 0,-2.78644 -1.01325,-5.25624 -1.01325,-2.4909 -2.95531,-4.47518 -1.92095,-1.94206 -4.39075,-2.95531 -2.44869,-1.01325 -5.21401,-1.01325 -2.74422,0 -5.1718,1.01325 -2.42757,1.01325 -4.39074,2.95531 -1.94207,2.00539 -2.95532,4.47518 -1.01325,2.44869 -1.01325,5.25624 0,2.78643 1.01325,5.27734 1.01325,2.46979 2.95532,4.45407 1.94206,1.96317 4.34852,2.97642 2.40647,0.99214 5.21402,0.99214 z m 16.54974,-13.69997 q 0,3.27195 -1.24545,6.22726 -1.24546,2.9342 -3.58859,5.23512 -2.38536,2.32203 -5.38289,3.54637 -2.99753,1.20324 -6.33281,1.20324 -3.33528,0 -6.33281,-1.20324 -2.97642,-1.22434 -5.34067,-3.54637 -2.36425,-2.34314 -3.6097,-5.25623 -1.22435,-2.9342 -1.22435,-6.20615 0,-3.31417 1.22435,-6.24838 1.24545,-2.95531 3.6097,-5.29845 2.32203,-2.30092 5.29845,-3.48304 2.97642,-1.18213 6.37503,-1.18213 3.41971,0 6.39614,1.20324 2.99753,1.18212 5.31956,3.46193 2.36424,2.34314 3.58859,5.29845 1.24545,2.93421 1.24545,6.24838 z"
         style="font-style:normal;font-variant:normal;font-weight:normal;font-stretch:normal;font-family:'Futura Lt BT';-inkscape-font-specification:'Futura Lt BT';fill:#ffffff;fill-opacity:1;stroke-width:2.71734"
         id="path843" />
      <path
         d="m 404.91587,346.98403 v 11.42017 h 2.82865 q 3.92635,0 5.46733,-1.24546 1.56209,-1.26656 1.56209,-4.2852 0,-3.18751 -1.60431,-4.53851 -1.60431,-1.351 -5.42511,-1.351 z m 15.95868,28.45542 h -3.41972 l -10.85021,-14.73433 h -1.68875 v 14.73433 h -2.80755 v -30.90411 h 5.67842 q 5.02403,0 7.51494,2.08983 2.51201,2.08983 2.51201,6.33281 0,3.6097 -2.15315,5.67842 -2.13205,2.06872 -5.88952,2.06872 z"
         style="font-style:normal;font-variant:normal;font-weight:normal;font-stretch:normal;font-family:'Futura Lt BT';-inkscape-font-specification:'Futura Lt BT';fill:#ffffff;fill-opacity:1;stroke-width:2.71734"
         id="path845" />
      <path
         d="m 422.5422,370.24655 2.40647,-1.28767 q 0.6755,2.27981 2.32203,3.54637 1.66764,1.24545 3.98967,1.24545 2.9342,0 4.58073,-1.73096 1.64653,-1.73097 1.64653,-4.79183 0,-2.23759 -1.1188,-3.71525 -1.09768,-1.47765 -4.7496,-3.41972 -4.66517,-2.46979 -6.20616,-4.34852 -1.54098,-1.87874 -1.54098,-4.51741 0,-3.29306 2.21648,-5.36178 2.2376,-2.06871 5.78397,-2.06871 2.32203,0 4.03189,0.99214 1.73097,0.97103 2.80754,2.9342 l -2.17426,1.30878 q -0.6755,-1.32989 -1.92095,-2.0265 -1.22435,-0.69661 -2.9131,-0.69661 -2.27981,0 -3.63081,1.351 -1.351,1.32989 -1.351,3.6097 0,3.25084 5.36178,6.05839 0.97103,0.50662 1.47766,0.78104 3.94745,2.17427 5.27734,4.11633 1.32989,1.92095 1.32989,5.00292 0,4.15855 -2.42758,6.60723 -2.42757,2.42758 -6.60723,2.42758 -3.03975,0 -5.21401,-1.49877 -2.15316,-1.51987 -3.3775,-4.5174 z"
         style="font-style:normal;font-variant:normal;font-weight:normal;font-stretch:normal;font-family:'Futura Lt BT';-inkscape-font-specification:'Futura Lt BT';fill:#ffffff;fill-opacity:1;stroke-width:2.71734"
         id="path847" />
      <path
         d="m 471.2626,350.19265 q -2.30092,-1.98428 -4.70739,-2.9342 -2.40646,-0.94992 -5.06624,-0.94992 -5.99506,0 -9.75253,3.79969 -3.73636,3.79968 -3.73636,9.90029 0,3.06086 0.9077,5.50954 0.92882,2.44869 2.80755,4.34853 1.85762,1.85762 4.24298,2.82866 2.40647,0.97103 5.15069,0.97103 2.65978,0 5.1929,-0.90771 2.53313,-0.9077 4.79183,-2.68089 v 3.29307 q -2.27981,1.39321 -4.83405,2.13204 -2.53312,0.75994 -5.02403,0.75994 -3.35639,0 -6.41724,-1.20324 -3.06086,-1.20323 -5.25623,-3.37749 -2.25871,-2.2376 -3.41972,-5.19291 -1.16102,-2.95531 -1.16102,-6.48057 0,-3.46194 1.18213,-6.45947 1.20323,-2.99753 3.44082,-5.17179 2.17427,-2.13205 5.23513,-3.33528 3.08196,-1.20324 6.39613,-1.20324 2.95531,0 5.46733,0.82327 2.53312,0.80215 4.60184,2.42758 z"
         style="font-style:normal;font-variant:normal;font-weight:normal;font-stretch:normal;font-family:'Futura Lt BT';-inkscape-font-specification:'Futura Lt BT';fill:#ffffff;fill-opacity:1;stroke-width:2.71734"
         id="path849" />
      <path
         d="m 477.34209,375.43945 v -30.90411 h 2.80754 v 12.53897 h 16.82417 v -12.53897 h 2.80754 v 30.90411 h -2.80754 v -15.95868 h -16.82417 v 15.95868 z"
         style="font-style:normal;font-variant:normal;font-weight:normal;font-stretch:normal;font-family:'Futura Lt BT';-inkscape-font-specification:'Futura Lt BT';fill:#ffffff;fill-opacity:1;stroke-width:2.71734"
         id="path851" />
      <path
         d="m 507.35963,344.53534 h 2.76532 v 20.18056 q 0,4.58073 2.08983,6.81832 2.08983,2.21648 6.39614,2.21648 4.24298,0 6.33281,-2.21648 2.08983,-2.23759 2.08983,-6.81832 v -20.18056 h 2.80754 v 19.27285 q 0,6.26948 -2.78644,9.37256 -2.78643,3.08197 -8.44374,3.08197 -5.67842,0 -8.46486,-3.08197 -2.78643,-3.10308 -2.78643,-9.37256 z"
         style="font-style:normal;font-variant:normal;font-weight:normal;font-stretch:normal;font-family:'Futura Lt BT';-inkscape-font-specification:'Futura Lt BT';fill:#ffffff;fill-opacity:1;stroke-width:2.71734"
         id="path853" />
      <path
         d="m 537.37712,375.43945 v -32.21289 l 21.89041,25.85897 v -24.55019 h 2.61756 v 31.81182 l -21.8693,-25.90119 v 24.99348 z"
         style="font-style:normal;font-variant:normal;font-weight:normal;font-stretch:normal;font-family:'Futura Lt BT';-inkscape-font-specification:'Futura Lt BT';fill:#ffffff;fill-opacity:1;stroke-width:2.71734"
         id="path855" />
      <path
         d="m 594.96349,352.30359 q -1.87874,-2.91309 -4.62295,-4.41186 -2.74422,-1.49876 -6.18505,-1.49876 -5.74175,0 -9.35145,3.88412 -3.6097,3.88412 -3.6097,10.06917 0,2.76532 0.94992,5.21401 0.97103,2.44869 2.80755,4.34853 1.85762,1.87873 4.15854,2.82865 2.30092,0.92882 5.04514,0.92882 5.19291,0 8.44375,-3.06086 3.27195,-3.06086 3.35639,-8.00045 H 585.2954 v -2.42758 h 13.74219 v 0.33775 q 0,7.38828 -4.03188,11.56793 -4.03189,4.17966 -11.10353,4.17966 -7.02942,0 -11.37795,-4.47519 -4.34853,-4.47518 -4.34853,-11.7368 0,-3.33528 1.09769,-6.29059 1.09769,-2.97643 3.1664,-5.1718 2.2376,-2.38536 5.04514,-3.56748 2.82866,-1.18213 6.29059,-1.18213 4.70739,0 8.06378,1.70986 3.35639,1.68875 5.17179,4.98181 z"
         style="font-style:normal;font-variant:normal;font-weight:normal;font-stretch:normal;font-family:'Futura Lt BT';-inkscape-font-specification:'Futura Lt BT';fill:#ffffff;fill-opacity:1;stroke-width:2.71734"
         id="path857" />
    </g>
  </g>
</svg>
