<?xml version="1.0" encoding="UTF-8" standalone="no"?>
<svg
   xmlns:dc="http://purl.org/dc/elements/1.1/"
   xmlns:cc="http://creativecommons.org/ns#"
   xmlns:rdf="http://www.w3.org/1999/02/22-rdf-syntax-ns#"
   xmlns:svg="http://www.w3.org/2000/svg"
   xmlns="http://www.w3.org/2000/svg"
   xmlns:sodipodi="http://sodipodi.sourceforge.net/DTD/sodipodi-0.dtd"
   xmlns:inkscape="http://www.inkscape.org/namespaces/inkscape"
   inkscape:version="1.0 (4035a4fb49, 2020-05-01)"
   sodipodi:docname="context.svg"
   id="svg8"
   version="1.1"
   viewBox="0 0 20 20"
   height="20"
   width="20">
  <defs
     id="defs2" />
  <sodipodi:namedview
     inkscape:snap-bbox="false"
     inkscape:window-maximized="1"
     inkscape:window-y="0"
     inkscape:window-x="0"
     inkscape:window-height="899"
     inkscape:window-width="1712"
     inkscape:guide-bbox="true"
     showguides="true"
     inkscape:snap-global="true"
     scale-x="1"
     units="px"
     showgrid="true"
     inkscape:document-rotation="0"
     inkscape:current-layer="layer1"
     inkscape:document-units="px"
     inkscape:cy="10.89946"
     inkscape:cx="33.74294"
     inkscape:zoom="16.000001"
     inkscape:pageshadow="2"
     inkscape:pageopacity="0.0"
     borderopacity="1.0"
     bordercolor="#666666"
     pagecolor="#ffffff"
     id="base">
    <inkscape:grid
       type="xygrid"
       id="grid831" />
  </sodipodi:namedview>
  <metadata
     id="metadata5">
    <rdf:RDF>
      <cc:Work
         rdf:about="">
        <dc:format>image/svg+xml</dc:format>
        <dc:type
           rdf:resource="http://purl.org/dc/dcmitype/StillImage" />
        <dc:title />
      </cc:Work>
    </rdf:RDF>
  </metadata>
  <g
     id="layer1"
     inkscape:groupmode="layer"
     inkscape:label="Layer 1">
    <path
       d="M 10 1 C 4.5790705 1 -1.1842379e-15 4.7093363 0 9.5 C 0 11.315486 0.75004793 12.953404 1.8691406 14.318359 L 1.0429688 17.773438 A 1.0001 1.0001 0 0 0 2.4433594 18.910156 L 6.046875 17.203125 C 7.2752283 17.658122 8.5822149 18 10 18 C 15.42093 18 20 14.290664 20 9.5 C 20 4.7093363 15.42093 1 10 1 z M 10 3 C 14.520196 3 18 6.0063925 18 9.5 C 18 12.993608 14.520196 16 10 16 C 8.6524988 16 7.3874753 15.728311 6.28125 15.253906 A 1.0001 1.0001 0 0 0 5.4589844 15.269531 L 3.4726562 16.208984 L 3.9101562 14.382812 A 1.0001 1.0001 0 0 0 3.6621094 13.460938 C 2.6017053 12.343853 2 10.981172 2 9.5 C 2 6.0063925 5.4798041 3 10 3 z M 5.5 6 A 0.50005 0.50005 0 0 0 5 6.5 L 5 7.5 A 0.50005 0.50005 0 0 0 5.5 8 L 6.5 8 A 0.50005 0.50005 0 0 0 7 7.5 L 7 6.5 A 0.50005 0.50005 0 0 0 6.5 6 L 5.5 6 z M 8.5 6 A 0.5 0.5 0 0 0 8 6.5 A 0.5 0.5 0 0 0 8.5 7 L 14.5 7 A 0.5 0.5 0 0 0 15 6.5 A 0.5 0.5 0 0 0 14.5 6 L 8.5 6 z M 5.5 9 A 0.50005 0.50005 0 0 0 5 9.5 L 5 10.5 A 0.50005 0.50005 0 0 0 5.5 11 L 6.5 11 A 0.50005 0.50005 0 0 0 7 10.5 L 7 9.5 A 0.50005 0.50005 0 0 0 6.5 9 L 5.5 9 z M 8.5 9 A 0.5 0.5 0 0 0 8 9.5 A 0.5 0.5 0 0 0 8.5 10 L 15.5 10 A 0.5 0.5 0 0 0 16 9.5 A 0.5 0.5 0 0 0 15.5 9 L 8.5 9 z M 5.5 12 A 0.50005 0.50005 0 0 0 5 12.5 L 5 13.5 A 0.50005 0.50005 0 0 0 5.5 14 L 6.5 14 A 0.50005 0.50005 0 0 0 7 13.5 L 7 12.5 A 0.50005 0.50005 0 0 0 6.5 12 L 5.5 12 z M 8.5 12 A 0.5 0.5 0 0 0 8 12.5 A 0.5 0.5 0 0 0 8.5 13 L 14.5 13 A 0.5 0.5 0 0 0 15 12.5 A 0.5 0.5 0 0 0 14.5 12 L 8.5 12 z "
       style="color:#000000;font-style:normal;font-variant:normal;font-weight:normal;font-stretch:normal;font-size:medium;line-height:normal;font-family:sans-serif;font-variant-ligatures:normal;font-variant-position:normal;font-variant-caps:normal;font-variant-numeric:normal;font-variant-alternates:normal;font-variant-east-asian:normal;font-feature-settings:normal;font-variation-settings:normal;text-indent:0;text-align:start;text-decoration:none;text-decoration-line:none;text-decoration-style:solid;text-decoration-color:#000000;letter-spacing:normal;word-spacing:normal;text-transform:none;writing-mode:lr-tb;direction:ltr;text-orientation:mixed;dominant-baseline:auto;baseline-shift:baseline;text-anchor:start;white-space:normal;shape-padding:0;shape-margin:0;inline-size:0;clip-rule:nonzero;display:inline;overflow:visible;visibility:visible;isolation:auto;mix-blend-mode:normal;color-interpolation:sRGB;color-interpolation-filters:linearRGB;solid-color:#000000;solid-opacity:1;vector-effect:none;fill:#000000;fill-opacity:1;fill-rule:nonzero;stroke:none;stroke-width:1;stroke-linecap:round;stroke-linejoin:round;stroke-miterlimit:4;stroke-dasharray:none;stroke-dashoffset:0;stroke-opacity:1;color-rendering:auto;image-rendering:auto;shape-rendering:auto;text-rendering:auto;enable-background:accumulate;stop-color:#000000;stop-opacity:1;opacity:1"
       id="path852" />
  </g>
</svg>
