<?xml version="1.0" encoding="UTF-8" standalone="no"?>
<svg
   xmlns:dc="http://purl.org/dc/elements/1.1/"
   xmlns:cc="http://creativecommons.org/ns#"
   xmlns:rdf="http://www.w3.org/1999/02/22-rdf-syntax-ns#"
   xmlns:svg="http://www.w3.org/2000/svg"
   xmlns="http://www.w3.org/2000/svg"
   xmlns:sodipodi="http://sodipodi.sourceforge.net/DTD/sodipodi-0.dtd"
   xmlns:inkscape="http://www.inkscape.org/namespaces/inkscape"
   width="20"
   height="20"
   viewBox="0 0 20 20"
   version="1.1"
   id="svg8"
   sodipodi:docname="date.svg"
   inkscape:version="1.0 (4035a4fb49, 2020-05-01)">
  <defs
     id="defs2" />
  <sodipodi:namedview
     id="base"
     pagecolor="#ffffff"
     bordercolor="#666666"
     borderopacity="1.0"
     inkscape:pageopacity="0.0"
     inkscape:pageshadow="2"
     inkscape:zoom="11.313709"
     inkscape:cx="17.023233"
     inkscape:cy="7.5898578"
     inkscape:document-units="px"
     inkscape:current-layer="layer1"
     inkscape:document-rotation="0"
     showgrid="true"
     units="px"
     scale-x="1"
     inkscape:snap-global="true"
     showguides="true"
     inkscape:guide-bbox="true"
     inkscape:window-width="1712"
     inkscape:window-height="899"
     inkscape:window-x="0"
     inkscape:window-y="0"
     inkscape:window-maximized="1">
    <inkscape:grid
       id="grid831"
       type="xygrid" />
  </sodipodi:namedview>
  <metadata
     id="metadata5">
    <rdf:RDF>
      <cc:Work
         rdf:about="">
        <dc:format>image/svg+xml</dc:format>
        <dc:type
           rdf:resource="http://purl.org/dc/dcmitype/StillImage" />
        <dc:title />
      </cc:Work>
    </rdf:RDF>
  </metadata>
  <g
     inkscape:label="Layer 1"
     inkscape:groupmode="layer"
     id="layer1">
    <path
       d="M 5 1 A 1 1 0 0 0 4 2 L 4 3 C 2.3552972 3 1 4.3552972 1 6 L 1 16 C 1 17.644703 2.3552972 19 4 19 L 16 19 C 17.644703 19 19 17.644703 19 16 L 19 6 C 19 4.3552972 17.644703 3 16 3 L 16 2 A 1 1 0 0 0 15 1 A 1 1 0 0 0 14 2 L 14 3 L 6 3 L 6 2 A 1 1 0 0 0 5 1 z M 4 5 L 15 5 L 16 5 C 16.571297 5 17 5.4287028 17 6 L 17 16 C 17 16.571297 16.571297 17 16 17 L 4 17 C 3.4287028 17 3 16.571297 3 16 L 3 6 C 3 5.4287028 3.4287028 5 4 5 z M 5.5 7 A 0.50005 0.50005 0 0 0 5 7.5 L 5 8.5 A 0.50005 0.50005 0 0 0 5.5 9 L 6.5 9 A 0.50005 0.50005 0 0 0 7 8.5 L 7 7.5 A 0.50005 0.50005 0 0 0 6.5 7 L 5.5 7 z M 9.5 7 A 0.50005 0.50005 0 0 0 9 7.5 L 9 8.5 A 0.50005 0.50005 0 0 0 9.5 9 L 10.5 9 A 0.50005 0.50005 0 0 0 11 8.5 L 11 7.5 A 0.50005 0.50005 0 0 0 10.5 7 L 9.5 7 z M 13.5 7 A 0.50005 0.50005 0 0 0 13 7.5 L 13 8.5 A 0.50005 0.50005 0 0 0 13.5 9 L 14.5 9 A 0.50005 0.50005 0 0 0 15 8.5 L 15 7.5 A 0.50005 0.50005 0 0 0 14.5 7 L 13.5 7 z M 5.5 10 A 0.50005 0.50005 0 0 0 5 10.5 L 5 11.5 A 0.50005 0.50005 0 0 0 5.5 12 L 6.5 12 A 0.50005 0.50005 0 0 0 7 11.5 L 7 10.5 A 0.50005 0.50005 0 0 0 6.5 10 L 5.5 10 z M 9.5 10 A 0.50005 0.50005 0 0 0 9 10.5 L 9 11.5 A 0.50005 0.50005 0 0 0 9.5 12 L 10.5 12 A 0.50005 0.50005 0 0 0 11 11.5 L 11 10.5 A 0.50005 0.50005 0 0 0 10.5 10 L 9.5 10 z M 13.5 10 A 0.50005 0.50005 0 0 0 13 10.5 L 13 11.5 A 0.50005 0.50005 0 0 0 13.5 12 L 14.5 12 A 0.50005 0.50005 0 0 0 15 11.5 L 15 10.5 A 0.50005 0.50005 0 0 0 14.5 10 L 13.5 10 z M 5.5 13 A 0.50005 0.50005 0 0 0 5 13.5 L 5 14.5 A 0.50005 0.50005 0 0 0 5.5 15 L 6.5 15 A 0.50005 0.50005 0 0 0 7 14.5 L 7 13.5 A 0.50005 0.50005 0 0 0 6.5 13 L 5.5 13 z M 9.5 13 A 0.50005 0.50005 0 0 0 9 13.5 L 9 14.5 A 0.50005 0.50005 0 0 0 9.5 15 L 10.5 15 A 0.50005 0.50005 0 0 0 11 14.5 L 11 13.5 A 0.50005 0.50005 0 0 0 10.5 13 L 9.5 13 z M 13.5 13 A 0.50005 0.50005 0 0 0 13 13.5 L 13 14.5 A 0.50005 0.50005 0 0 0 13.5 15 L 14.5 15 A 0.50005 0.50005 0 0 0 15 14.5 L 15 13.5 A 0.50005 0.50005 0 0 0 14.5 13 L 13.5 13 z "
       style="color:#000000;font-style:normal;font-variant:normal;font-weight:normal;font-stretch:normal;font-size:medium;line-height:normal;font-family:sans-serif;font-variant-ligatures:normal;font-variant-position:normal;font-variant-caps:normal;font-variant-numeric:normal;font-variant-alternates:normal;font-variant-east-asian:normal;font-feature-settings:normal;font-variation-settings:normal;text-indent:0;text-align:start;text-decoration:none;text-decoration-line:none;text-decoration-style:solid;text-decoration-color:#000000;letter-spacing:normal;word-spacing:normal;text-transform:none;writing-mode:lr-tb;direction:ltr;text-orientation:mixed;dominant-baseline:auto;baseline-shift:baseline;text-anchor:start;white-space:normal;shape-padding:0;shape-margin:0;inline-size:0;clip-rule:nonzero;display:inline;overflow:visible;visibility:visible;isolation:auto;mix-blend-mode:normal;color-interpolation:sRGB;color-interpolation-filters:linearRGB;solid-color:#000000;solid-opacity:1;vector-effect:none;fill:#000000;fill-opacity:1;fill-rule:nonzero;stroke:none;stroke-width:2;stroke-linecap:round;stroke-linejoin:round;stroke-miterlimit:4;stroke-dasharray:none;stroke-dashoffset:0;stroke-opacity:1;color-rendering:auto;image-rendering:auto;shape-rendering:auto;text-rendering:auto;enable-background:accumulate;stop-color:#000000;stop-opacity:1;opacity:1"
       id="path976" />
  </g>
</svg>
