<?xml version="1.0" encoding="UTF-8" standalone="no"?>
<svg
   xmlns:dc="http://purl.org/dc/elements/1.1/"
   xmlns:cc="http://creativecommons.org/ns#"
   xmlns:rdf="http://www.w3.org/1999/02/22-rdf-syntax-ns#"
   xmlns:svg="http://www.w3.org/2000/svg"
   xmlns="http://www.w3.org/2000/svg"
   xmlns:sodipodi="http://sodipodi.sourceforge.net/DTD/sodipodi-0.dtd"
   xmlns:inkscape="http://www.inkscape.org/namespaces/inkscape"
   inkscape:version="1.0 (4035a4fb49, 2020-05-01)"
   sodipodi:docname="book-small.svg"
   id="svg8"
   version="1.1"
   viewBox="0 0 20 20"
   height="20"
   width="20">
  <defs
     id="defs2" />
  <sodipodi:namedview
     inkscape:window-maximized="1"
     inkscape:window-y="0"
     inkscape:window-x="0"
     inkscape:window-height="899"
     inkscape:window-width="1712"
     inkscape:guide-bbox="true"
     showguides="true"
     inkscape:snap-global="true"
     scale-x="1"
     units="px"
     showgrid="true"
     inkscape:document-rotation="0"
     inkscape:current-layer="layer1"
     inkscape:document-units="px"
     inkscape:cy="16.468755"
     inkscape:cx="7.3977604"
     inkscape:zoom="11.313709"
     inkscape:pageshadow="2"
     inkscape:pageopacity="0.0"
     borderopacity="1.0"
     bordercolor="#666666"
     pagecolor="#ffffff"
     id="base">
    <inkscape:grid
       type="xygrid"
       id="grid831" />
  </sodipodi:namedview>
  <metadata
     id="metadata5">
    <rdf:RDF>
      <cc:Work
         rdf:about="">
        <dc:format>image/svg+xml</dc:format>
        <dc:type
           rdf:resource="http://purl.org/dc/dcmitype/StillImage" />
        <dc:title />
      </cc:Work>
    </rdf:RDF>
  </metadata>
  <g
     id="layer1"
     inkscape:groupmode="layer"
     inkscape:label="Layer 1">
    <path
       d="M 5.5 3 C 5.0738017 3 4.7174753 3.205257 4.4550781 3.4726562 C 4.1926809 3.7400556 4 4.087521 4 4.5 L 4 15.5 A 0.5 0.5 0 0 0 4.0136719 15.619141 C 4.0473299 15.978385 4.2189957 16.28676 4.4550781 16.527344 C 4.7174753 16.794743 5.0738017 17 5.5 17 L 15.5 17 A 0.5 0.5 0 0 0 16 16.5 A 0.5 0.5 0 0 0 15.5 16 L 15 16 L 15 15 L 15.5 15 A 0.5 0.5 0 0 0 16 14.5 L 16 3.5117188 A 0.5 0.5 0 0 0 16 3.5 A 0.5 0.5 0 0 0 15.5 3 L 6.5117188 3 L 6.5 3 L 5.5 3 z M 5.5 4 L 6 4 L 6 14 L 5.5 14 C 5.31906 14 5.1539121 14.044383 5 14.107422 L 5 4.5 C 5 4.441074 5.0573191 4.2885775 5.1699219 4.1738281 C 5.2825247 4.0590787 5.4261983 4 5.5 4 z M 7 4 L 15 4 L 15 14 L 7 14 L 7 4 z M 5.5 15 L 6.4882812 15 L 6.5 15 L 14 15 L 14 16 L 5.5 16 C 5.4261983 16 5.2825247 15.940921 5.1699219 15.826172 C 5.0573191 15.711422 5 15.558926 5 15.5 C 5 15.441074 5.0573191 15.288578 5.1699219 15.173828 C 5.2825247 15.059079 5.4261983 15 5.5 15 z "
       style="color:#000000;font-style:normal;font-variant:normal;font-weight:normal;font-stretch:normal;font-size:medium;line-height:normal;font-family:sans-serif;font-variant-ligatures:normal;font-variant-position:normal;font-variant-caps:normal;font-variant-numeric:normal;font-variant-alternates:normal;font-variant-east-asian:normal;font-feature-settings:normal;font-variation-settings:normal;text-indent:0;text-align:start;text-decoration:none;text-decoration-line:none;text-decoration-style:solid;text-decoration-color:#000000;letter-spacing:normal;word-spacing:normal;text-transform:none;writing-mode:lr-tb;direction:ltr;text-orientation:mixed;dominant-baseline:auto;baseline-shift:baseline;text-anchor:start;white-space:normal;shape-padding:0;shape-margin:0;inline-size:0;clip-rule:nonzero;display:inline;overflow:visible;visibility:visible;isolation:auto;mix-blend-mode:normal;color-interpolation:sRGB;color-interpolation-filters:linearRGB;solid-color:#000000;solid-opacity:1;vector-effect:none;fill:#000000;fill-opacity:1;fill-rule:nonzero;stroke:none;stroke-width:1px;stroke-linecap:round;stroke-linejoin:round;stroke-miterlimit:4;stroke-dasharray:none;stroke-dashoffset:0;stroke-opacity:1;color-rendering:auto;image-rendering:auto;shape-rendering:auto;text-rendering:auto;enable-background:accumulate;stop-color:#000000;stop-opacity:1;opacity:1"
       id="path861" />
  </g>
</svg>
