<?xml version="1.0" encoding="UTF-8" standalone="no"?>
<svg
   xmlns:dc="http://purl.org/dc/elements/1.1/"
   xmlns:cc="http://creativecommons.org/ns#"
   xmlns:rdf="http://www.w3.org/1999/02/22-rdf-syntax-ns#"
   xmlns:svg="http://www.w3.org/2000/svg"
   xmlns="http://www.w3.org/2000/svg"
   xmlns:sodipodi="http://sodipodi.sourceforge.net/DTD/sodipodi-0.dtd"
   xmlns:inkscape="http://www.inkscape.org/namespaces/inkscape"
   width="20"
   height="20"
   viewBox="0 0 20 20"
   version="1.1"
   id="svg8"
   sodipodi:docname="comic.svg"
   inkscape:version="1.0 (4035a4fb49, 2020-05-01)">
  <defs
     id="defs2" />
  <sodipodi:namedview
     id="base"
     pagecolor="#ffffff"
     bordercolor="#666666"
     borderopacity="1.0"
     inkscape:pageopacity="0.0"
     inkscape:pageshadow="2"
     inkscape:zoom="11.313709"
     inkscape:cx="45.801628"
     inkscape:cy="25.954219"
     inkscape:document-units="px"
     inkscape:current-layer="layer1"
     inkscape:document-rotation="0"
     showgrid="true"
     units="px"
     scale-x="1"
     inkscape:snap-global="true"
     showguides="true"
     inkscape:guide-bbox="true"
     inkscape:window-width="1712"
     inkscape:window-height="899"
     inkscape:window-x="0"
     inkscape:window-y="0"
     inkscape:window-maximized="1">
    <inkscape:grid
       id="grid831"
       type="xygrid" />
  </sodipodi:namedview>
  <metadata
     id="metadata5">
    <rdf:RDF>
      <cc:Work
         rdf:about="">
        <dc:format>image/svg+xml</dc:format>
        <dc:type
           rdf:resource="http://purl.org/dc/dcmitype/StillImage" />
        <dc:title />
      </cc:Work>
    </rdf:RDF>
  </metadata>
  <g
     inkscape:label="Layer 1"
     inkscape:groupmode="layer"
     id="layer1">
    <path
       d="M 3 1 C 1.9092972 1 1 1.9092972 1 3 L 1 11 C 1 12.090703 1.9092972 13 3 13 L 7 13 C 8.0907028 13 9 12.090703 9 11 L 9 3 C 9 1.9092972 8.0907028 1 7 1 L 3 1 z M 11.5 1 C 10.677649 1 10 1.6776486 10 2.5 L 10 7.5 C 10 8.3223514 10.677649 9 11.5 9 L 17.5 9 C 18.322351 9 19 8.3223514 19 7.5 L 19 2.5 C 19 1.6776486 18.322351 1 17.5 1 L 11.5 1 z M 11.5 2 L 17.5 2 C 17.785649 2 18 2.2143514 18 2.5 L 18 7.5 C 18 7.7856486 17.785649 8 17.5 8 L 11.5 8 C 11.214351 8 11 7.7856486 11 7.5 L 11 2.5 C 11 2.2143514 11.214351 2 11.5 2 z M 3 3 L 7 3 L 7 11 L 3 11 L 3 3 z M 12 10 C 10.909297 10 10 10.909297 10 12 L 10 17 C 10 18.090703 10.909297 19 12 19 L 17 19 C 18.090703 19 19 18.090703 19 17 L 19 12 C 19 10.909297 18.090703 10 17 10 L 12 10 z M 12 12 L 17 12 L 17 17 L 12 17 L 12 12 z M 2.5 14 C 1.6776486 14 1 14.677649 1 15.5 L 1 17.5 C 1 18.322351 1.6776486 19 2.5 19 L 7.5 19 C 8.3223514 19 9 18.322351 9 17.5 L 9 15.5 C 9 14.677649 8.3223514 14 7.5 14 L 2.5 14 z M 2.5 15 L 7.5 15 C 7.7856486 15 8 15.214351 8 15.5 L 8 17.5 C 8 17.785649 7.7856486 18 7.5 18 L 2.5 18 C 2.2143514 18 2 17.785649 2 17.5 L 2 15.5 C 2 15.214351 2.2143514 15 2.5 15 z "
       style="color:#000000;font-style:normal;font-variant:normal;font-weight:normal;font-stretch:normal;font-size:medium;line-height:normal;font-family:sans-serif;font-variant-ligatures:normal;font-variant-position:normal;font-variant-caps:normal;font-variant-numeric:normal;font-variant-alternates:normal;font-variant-east-asian:normal;font-feature-settings:normal;font-variation-settings:normal;text-indent:0;text-align:start;text-decoration:none;text-decoration-line:none;text-decoration-style:solid;text-decoration-color:#000000;letter-spacing:normal;word-spacing:normal;text-transform:none;writing-mode:lr-tb;direction:ltr;text-orientation:mixed;dominant-baseline:auto;baseline-shift:baseline;text-anchor:start;white-space:normal;shape-padding:0;shape-margin:0;inline-size:0;clip-rule:nonzero;display:inline;overflow:visible;visibility:visible;opacity:1;isolation:auto;mix-blend-mode:normal;color-interpolation:sRGB;color-interpolation-filters:linearRGB;solid-color:#000000;solid-opacity:1;vector-effect:none;fill:#000000;fill-opacity:1;fill-rule:nonzero;stroke:none;stroke-width:2;stroke-linecap:round;stroke-linejoin:round;stroke-miterlimit:4;stroke-dasharray:none;stroke-dashoffset:0;stroke-opacity:1;color-rendering:auto;image-rendering:auto;shape-rendering:auto;text-rendering:auto;enable-background:accumulate;stop-color:#000000;stop-opacity:1"
       id="path878" />
  </g>
</svg>
